{
    "development":{
        "username": "admin",
        "password": "1234",
        "database": "noticiasbd",
        "host": "127.0.0.1",
        "dialect": "mysql",
        "operatorAliases": false
    },

    "staging":{
        "username": "colocarnombre",
        "password": "colocarcontraseña",
        "database": "nombrebd",
        "host": "127.0.0.1---inventarse todo",
        "dialect": "mysql",
        "operatorAliases": false
    },

    "production":{
        "username": "colocarnombre --- inventarse todo",
        "password": "colocarcontraseña",
        "database": "nombrebd",
        "host": "127.0.0.1---inventarse todo",
        "dialect": "mysql",
        "operatorAliases": false
    }
}